{
    "checksum": "0",
    "version": "0.0.1",
    "modified": "3/23/2016",
    "changed": "1/1/2016",
    "revision": 1,
    "type": "controller",
    "order": 1000,
    "desc": "Main application controller",
    "dependancies": "$filter, $mdSidenav, $mdDialog, $appEvent, $mdToast, $http, $scope, $mdMedia, $timeout, $compile, socket, $rootScope, $model, $log, $trace, gsiSideNav, $window, taskBadgeFilter, $interval, $location, $mdPanel, $window, constants, gsiActivity",
    "name": "app",
    "inject": ["events"],
    "source": "https://gsihealth.com"
}