{
	"checksum"	: "0",
	"version"	: "1.0.4",
	"modified"	: "11/18/2015",
	"changed"	: "1/1/2016",
	"revision"	: 1,
	"type"		: "standard",
	"order"		: 10000,
	"name"		: "JSONQ",
	"desc"		: "JSON Query library",
	"source"	: "https://github.com/s-yadav/jsonQ",
	"manual"	: "http://ignitersworld.com/lab/jsonQ.html",
	"enabled"	: true
}