{
	"checksum"	: "0",
	"version"	: "1.1.1",
	"modified"	: "4/5/2016",
	"changed"	: "1/1/2016",
	"revision"	: 1,
	"type"		: "standard",
	"desc"		: "Universal dialog controller",
	"source"	: "https://gsihealth.com",
	"enabled"	: true
}