{
	"checksum"		: "0",
	"version"		: "0.0.1",
	"modified"		: "3/23/2016",
	"changed"		: "1/1/2016",
	"revision"		: 1,
	"type"			: "app",
	"order"			: 1000,
	"desc"			: "Application filters",
	"name"			: "appFilters",
	"source"		: "https://gsihealth.com"
}