{
	"checksum"	: "0",
	"version"	: "1.5.3",
	"modified"	: "3/23/2016",
	"changed"	: "1/1/2016",
	"revision"	: 1,
	"type"		: "core",
	"order"		: 1000,
	"name"		: "AngularJS",
	"desc"		: "AngularJS 1 by Google",
	"source"	: "https://angularjs.org",
	"enabled"	: true
}